Compare Two Networks from Sequence Data using a Permutation Test — permutation_test • tna
…
    Examples

model_x <- tna(group_regulation[1:200, ])
model_y <- tna(group_regulation[1001:1200, ])
# Small number of iterations for CRAN
permutation_test(model_x, model_y, iter = 20)
#> # A tibble: 81 × 4
#>    edge_name           diff_true effect_size p_value
#>    <chr>                   <dbl>       <dbl>   <dbl>
#>  1 adapt -> adapt       0            NaN      1     
#>  2 cohesion -> adapt    0.00541        0.923  0.952 
#>  3 consensus -> adapt  -0.000679      -0.155  0.714 
#>  4 coregulate -> adapt  0.00769        0.464  0.762 
#>  5 discuss -> adapt    -0.130         -9.35   0.0476
#>  6 emotion -> adapt     0.0101         1.65   0.333 
#>  7 monitor -> adapt    -0.00480       -0.346  1     
#>  8 plan -> adapt        0.00339        1.50   0.0952
#>  9 synthesis -> adapt  -0.159         -2.38   0.0476
#> 10 adapt -> cohesion   -0.0907        -1.17   0.286 
#> # ℹ 71 more rows
…
