Compute User Sessions from Event Data — prepare_data • tna
…
#> ℹ First few time values: 2025-01-01 08:27:07.712698, 2025-01-01
#>   08:35:20.712698, and 2025-01-01 08:42:18.712698
#> ℹ Number of values to parse: 27533
#> ℹ Sample values: 2025-01-01 08:27:07.712698, 2025-01-01 08:35:20.712698, and
#>   2025-01-01 08:42:18.712698
#> ℹ Sample of parsed times: 2025-01-01 08:27:07.712698, 2025-01-01
#>   08:35:20.712698, and 2025-01-01 08:42:18.712698
#> ℹ Time threshold for new session: 900 seconds
#> ℹ Total number of sessions: 2000
#> ℹ Number of unique users: 2000
#> ℹ Total number of actions: 27533
#> ℹ Maximum sequence length: 26 actions
#> ℹ Time range: 2025-01-01 08:01:16.009382 to 2025-01-01 13:03:20.238288
print(results$sequence_data)
#> # A tibble: 2,000 × 26
#>    Action_T1 Action_T2 Action_T3 Action_T4 Action_T5  Action_T6  Action_T7
#>    <chr>     <chr>     <chr>     <chr>     <chr>      <chr>      <chr>    
#>  1 cohesion  consensus discuss   synthesis adapt      consensus  plan     
#>  2 emotion   cohesion  discuss   synthesis NA         NA         NA       
#>  3 plan      consensus plan      NA        NA         NA         NA       
#>  4 discuss   discuss   consensus plan      cohesion   consensus  discuss  
#>  5 cohesion  consensus plan      plan      monitor    plan       consensus
#>  6 discuss   adapt     cohesion  consensus discuss    emotion    cohesion 
#>  7 discuss   emotion   cohesion  consensus coregulate coregulate plan     
#>  8 cohesion  plan      consensus plan      consensus  discuss    discuss  
#>  9 emotion   cohesion  emotion   plan      monitor    discuss    emotion  
#> 10 emotion   cohesion  consensus plan      plan       plan       plan     
#> # ℹ 1,990 more rows
#> # ℹ 19 more variables: Action_T8 <chr>, Action_T9 <chr>, Action_T10 <chr>,
#> #   Action_T11 <chr>, Action_T12 <chr>, Action_T13 <chr>, Action_T14 <chr>,
#> #   Action_T15 <chr>, Action_T16 <chr>, Action_T17 <chr>, Action_T18 <chr>,
#> #   Action_T19 <chr>, Action_T20 <chr>, Action_T21 <chr>, Action_T22 <chr>,
#> #   Action_T23 <chr>, Action_T24 <chr>, Action_T25 <chr>, Action_T26 <chr>
print(results$meta_data)
#> # A tibble: 2,000 × 7
#>    .session_id   Actor Achiever Group Course Time                .session_nr
#>    <chr>         <int> <chr>    <dbl> <chr>  <dttm>                    <int>
#>  1 1 session1        1 High         1 A      2025-01-01 08:27:07           1
#>  2 10 session1      10 High         1 A      2025-01-01 08:23:45           1
#>  3 100 session1    100 High        10 A      2025-01-01 10:11:50           1
#>  4 1000 session1  1000 High       100 B      2025-01-01 09:12:00           1
#>  5 1001 session1  1001 Low        101 B      2025-01-01 09:18:40           1
#>  6 1002 session1  1002 Low        101 B      2025-01-01 09:18:53           1
#>  7 1003 session1  1003 Low        101 B      2025-01-01 09:18:05           1
#>  8 1004 session1  1004 Low        101 B      2025-01-01 09:22:26           1
#>  9 1005 session1  1005 Low        101 B      2025-01-01 09:22:31           1
#> 10 1006 session1  1006 Low        101 B      2025-01-01 09:15:23           1
#> # ℹ 1,990 more rows
print(results$statistics)
#> $total_sessions
#> [1] 2000
#> 
#> $total_actions
#> [1] 27533
#> 
#> $max_sequence_length
#> [1] 26
#> 
#> $unique_users
#> [1] 2000
#> 
#> $sessions_per_user
#> # A tibble: 2,000 × 2
#>    Actor n_sessions
#>    <int>      <int>
#>  1     1          1
#>  2     2          1
#>  3     3          1
#>  4     4          1
#>  5     5          1
#>  6     6          1
#>  7     7          1
#>  8     8          1
#>  9     9          1
#> 10    10          1
#> # ℹ 1,990 more rows
#> 
#> $actions_per_session
#> # A tibble: 2,000 × 2
#>    .session_id   n_actions
#>    <chr>             <int>
#>  1 1010 session1        26
#>  2 1015 session1        26
#>  3 1030 session1        26
#>  4 1092 session1        26
#>  5 1106 session1        26
#>  6 1107 session1        26
#>  7 1153 session1        26
#>  8 1184 session1        26
#>  9 1209 session1        26
#> 10 1267 session1        26
#> # ℹ 1,990 more rows
…
