Attention TNA • tna
…
This draws a single network where each edge shows the
difference between groups. Positive edges (one color) are
stronger in the first group; negative edges (another color) are stronger
in the second group. It is the fastest way to see where the two groups
diverge.

Permutation Test

perm <- permutation_test(gtna, iter = 1000)
print(perm)
#> High vs. Low :
#> # A tibble: 81 × 4
#>    edge_name           diff_true effect_size  p_value
#>    <chr>                   <dbl>       <dbl>    <dbl>
#>  1 adapt -> adapt         -1.34       -3.18  0.00200 
#>  2 cohesion -> adapt       0.907       0.895 0.373   
#>  3 consensus -> adapt     -6.92       -2.62  0.0150  
#>  4 coregulate -> adapt    -2.40       -1.04  0.311   
#>  5 discuss -> adapt      -83.7       -11.4   0.000999
#>  6 emotion -> adapt       -0.777      -0.598 0.563   
#>  7 monitor -> adapt       -5.27       -3.04  0.000999
#>  8 plan -> adapt          -5.68       -3.59  0.000999
#>  9 synthesis -> adapt    -27.6        -5.84  0.000999
#> 10 adapt -> cohesion     -25.7        -5.87  0.000999
#> # ℹ 71 more rows
…
