Frequency-based tna • tna
…
Frequency-based tna

      Source: vignettes/articles/ftna.Rmd
      ftna.Rmd

FTNA tutorial

# Install 'tna' package from CRAN if needed (uncomment if required).
# install.packages("tna")

# Load packages
library("tna")

# Load example data provided within the 'tna' package, 
# representing group regulatory interactions
data(group_regulation)

# Run FTNA on 'group_regulation' data using raw counts of 
# transitions ("absolute" type) and print the result
model <- ftna(group_regulation)

# Print the output to inspect the model
print(model)
#> State Labels
#> 
#> adapt, cohesion, consensus, coregulate, discuss, emotion, monitor, plan, synthesis 
#> 
#> Transition Frequency Matrix
#> 
#>            adapt cohesion consensus coregulate discuss emotion monitor plan
#> adapt          0      139       243         11      30      61      17    8
#> cohesion       5       46       844        202     101     196      56  239
#> consensus     30       94       519       1188    1190     460     295 2505
#>            synthesis
#> adapt              0
#> cohesion           6
#> consensus         48
#>  [ reached 'max' / getOption("max.print") -- omitted 6 rows ]
…
