…
    #> $total_sessions
    #> [1] 2000
    #> 
    #> $total_actions
    #> [1] 27533
    #> 
    #> $max_sequence_length
    #> [1] 26
    #> 
    #> $unique_users
    #> [1] 2000
    #> 
    #> $sessions_per_user
    #> # A tibble: 2,000 × 2
    #>    Actor n_sessions
    #>    <int>      <int>
    #>  1     1          1
    #>  2     2          1
    #>  3     3          1
    #>  4     4          1
    #>  5     5          1
    #>  6     6          1
    #>  7     7          1
    #>  8     8          1
    #>  9     9          1
    #> 10    10          1
    #> # ℹ 1,990 more rows
    #> 
    #> $actions_per_session
    #> # A tibble: 2,000 × 2
    #>    .session_id   n_actions
    #>    <chr>             <int>
    #>  1 1010 session1        26
    #>  2 1015 session1        26
    #>  3 1030 session1        26
    #>  4 1092 session1        26
    #>  5 1106 session1        26
    #>  6 1107 session1        26
    #>  7 1153 session1        26
    #>  8 1184 session1        26
    #>  9 1209 session1        26
    #> 10 1267 session1        26
    #> # ℹ 1,990 more rows
…
------------------------------------------------------------------------

## Comparison

### `compare()`

Compare two TNA models with comprehensive metrics.

``` r
comp <- compare(gmodel, i = 1, j = 2)
print(comp)
```

    #> Edge difference metrics
    #> # A tibble: 81 × 16
    #>    source     target   weight_x weight_y raw_difference absolute_difference
    #>    <fct>      <fct>       <dbl>    <dbl>          <dbl>               <dbl>
    #>  1 adapt      adapt     0       0              0                   0       
    #>  2 cohesion   adapt     0.00533 0              0.00533             0.00533 
    #>  3 consensus  adapt     0.00413 0.00545       -0.00132             0.00132 
    #>  4 coregulate adapt     0.0224  0.0112         0.0112              0.0112  
    #>  5 discuss    adapt     0.0240  0.120         -0.0962              0.0962  
    #>  6 emotion    adapt     0.00323 0.00155        0.00167             0.00167 
    #>  7 monitor    adapt     0.0111  0.0112        -0.000192            0.000192
    #>  8 plan       adapt     0.00138 0.000613       0.000771            0.000771
    #>  9 synthesis  adapt     0.144   0.302         -0.158               0.158   
    #> 10 adapt      cohesion  0.262   0.277         -0.0148              0.0148  
    #> # ℹ 71 more rows
    #> # ℹ 10 more variables: squared_difference <dbl>, relative_difference <dbl>,
    #> #   similarity_strength_index <dbl>, difference_index <dbl>,
    #> #   rank_difference <dbl>, percentile_difference <dbl>,
    #> #   logarithmic_ratio <dbl>, standardized_weight_x <dbl>,
    #> #   standardized_weight_y <dbl>, standardized_score_inflation <dbl>
    #> 
    #> Summary metrics of differences
    #> # A tibble: 22 × 3
    #>    category          metric                value
    #>    <chr>             <chr>                 <dbl>
    #>  1 Weight Deviations Mean Abs. Diff.      0.0322
    #>  2 Weight Deviations Median Abs. Diff.    0.0181
    #>  3 Weight Deviations RMS Diff.            0.0522
    #>  4 Weight Deviations Max Abs. Diff.       0.210 
    #>  5 Weight Deviations Rel. Mean Abs. Diff. 0.290 
    #>  6 Weight Deviations CV Ratio             1.10  
    #>  7 Correlations      Pearson              0.921 
    #>  8 Correlations      Spearman             0.915 
    #>  9 Correlations      Kendall              0.767 
    #> 10 Correlations      Distance             0.838 
    #> # ℹ 12 more rows
…
### `permutation_test()`

Permutation tests for edge weight and centrality differences.

    permutation_test(x, y, adjust = "none", iter = 1000, paired = FALSE,
                     level = 0.05, measures = character(0), ...)

``` r
model_x <- tna(group_regulation[1:200, ])
model_y <- tna(group_regulation[1001:1200, ])
perm <- permutation_test(model_x, model_y, iter = 100)
print(perm)
```

    #> # A tibble: 81 × 4
    #>    edge_name           diff_true effect_size p_value
    #>    <chr>                   <dbl>       <dbl>   <dbl>
    #>  1 adapt -> adapt       0            NaN     1      
    #>  2 cohesion -> adapt    0.00541        0.949 0.802  
    #>  3 consensus -> adapt  -0.000679      -0.175 0.752  
    #>  4 coregulate -> adapt  0.00769        0.568 0.624  
    #>  5 discuss -> adapt    -0.130         -7.11  0.00990
    #>  6 emotion -> adapt     0.0101         1.59  0.257  
    #>  7 monitor -> adapt    -0.00480       -0.367 0.970  
    #>  8 plan -> adapt        0.00339        1.56  0.0297 
    #>  9 synthesis -> adapt  -0.159         -2.08  0.0594 
    #> 10 adapt -> cohesion   -0.0907        -1.23  0.238  
    #> # ℹ 71 more rows
…
